(module door-posts (layer F.Cu) (tedit 6152E05B)
  (descr "door StepUp generated footprint")
  (attr smd)
  (fp_text reference Ref** (at -1.55 -5.97) (layer F.SilkS)
    (effects (font (size 1 1) (thickness 0.15)))
  )
  (fp_text value Val** (at -1.55 -7.97) (layer F.SilkS)
    (effects (font (size 1 1) (thickness 0.15)))
  )
  (fp_circle (center 0 0) (end -0.8 0) (layer Dwgs.User) (width 0.1))
  (fp_circle (center 64 0) (end 63.2 0) (layer Dwgs.User) (width 0.1))
  (fp_circle (center 64 34) (end 63.2 34) (layer Dwgs.User) (width 0.1))
  (fp_circle (center 0 34) (end -0.8 34) (layer Dwgs.User) (width 0.1))
  (fp_line (start 2.9 24.5) (end -3 24.5) (layer Dwgs.User) (width 0.1))
  (fp_line (start -3 24.5) (end -3 8.5) (layer Dwgs.User) (width 0.1))
  (fp_line (start 2.9 24.5) (end 2.9 8.5) (layer Dwgs.User) (width 0.1))
  (fp_line (start 2.9 8.5) (end -3 8.5) (layer Dwgs.User) (width 0.1))
  (fp_circle (center 65 4) (end 64.2 4) (layer Dwgs.User) (width 0.1))
  (fp_circle (center 65 30) (end 64.2 30) (layer Dwgs.User) (width 0.1))
  (fp_circle (center -1 30) (end -1.8 30) (layer Dwgs.User) (width 0.1))
  (fp_circle (center -1 4) (end -1.8 4) (layer Dwgs.User) (width 0.1))
  (fp_line (start 2.9 9.5) (end 6.9 9.5) (layer Dwgs.User) (width 0.1))
  (fp_line (start 6.9 9.5) (end 6.9 22.5) (layer Dwgs.User) (width 0.1))
  (fp_line (start 6.9 22.5) (end 2.9 22.5) (layer Dwgs.User) (width 0.1))
  (fp_line (start 2.9 22.5) (end 2.9 9.5) (layer Dwgs.User) (width 0.1))
  (fp_line (start 61.353 1.412) (end 63.235 4.941) (layer Dwgs.User) (width 0.1))
  (fp_line (start 67 0) (end 67 4) (layer Dwgs.User) (width 0.1))
  (fp_line (start 67 34) (end 67 30) (layer Dwgs.User) (width 0.1))
  (fp_line (start 61.353 32.588) (end 63.235 29.059) (layer Dwgs.User) (width 0.1))
  (fp_line (start -3 30) (end -3 34) (layer Dwgs.User) (width 0.1))
  (fp_line (start 0.765 29.059) (end 2.647 32.588) (layer Dwgs.User) (width 0.1))
  (fp_line (start -3 0) (end -3 4) (layer Dwgs.User) (width 0.1))
  (fp_line (start 2.647 1.412) (end 0.765 4.941) (layer Dwgs.User) (width 0.1))
  (fp_arc (start -1 4) (end -3 4) (angle -151.928) (layer Dwgs.User) (width 0.1))
  (fp_arc (start 0 0) (end 2.647 1.412) (angle -208.072) (layer Dwgs.User) (width 0.1))
  (fp_arc (start 0 34) (end -3 34) (angle -208.072) (layer Dwgs.User) (width 0.1))
  (fp_arc (start -1 30) (end 0.765 29.059) (angle -151.928) (layer Dwgs.User) (width 0.1))
  (fp_arc (start 65 30) (end 67 30) (angle -151.928) (layer Dwgs.User) (width 0.1))
  (fp_arc (start 64 34) (end 61.353 32.588) (angle -208.072) (layer Dwgs.User) (width 0.1))
  (fp_arc (start 65 4) (end 63.235 4.941) (angle -151.928) (layer Dwgs.User) (width 0.1))
  (fp_arc (start 64 0) (end 67 0) (angle -208.072) (layer Dwgs.User) (width 0.1))
  (fp_text user %R (at -1.55 -5.97) (layer Dwgs.User)
    (effects (font (size 1 1) (thickness 0.15)))
  )
  (model /home/drid/Devel/LSF/picobus/picobus-deployer-pcb/door.wrl
    (at (xyz 0 0 0))
    (scale (xyz 1 1 1))
    (rotate (xyz 0 0 0))
  )
)
